# Window width height (2 integers)
640 480

# (camera/eye) Look from (3 floats)
0.0 5.0 20.0
# (camera/eye) Look at (3 floats)
0.0 4.5 0.0
# (camera/eye) Up (3 floats)
0.0 1.0 0.0
# (camera/eye) Field of view (degree)
60.0

# Light position (4 floats)
0.0 0.0 2.0 0.0 
# Light color (4 floats)
1.0 1.0 1.0 1.0
# Light ambient  (4 floats)
0.2 0.2 0.2 1.0

# Material diffuse (4 floats)
0.64 0.64 0.64 1.0
# Material specular (4 floats)
0.0 0.0 0.0 1.0
# Material emission (4 floats)
0.0 0.0 0.0 1.0
# Material shininess (0-128)
100